# CO_AnalogResistance # CO_Rs/R0 # CO_R0 # CO2_AnalogResistance # CO2_Rs/R0 # CO2_R0 #
--------------------------------------------------------------------------------------
#4.23#50.94#0.08# ##4.42#0.63#7.05#
#3.99#50.94#0.08# ##4.13#0.63#6.59#
#3.18#50.94#0.06# ##3.99#0.63#6.36#
#2.24#50.94#0.04# ##2.75#0.63#4.39#
#3.23#50.94#0.06# ##3.72#0.63#5.93#
#3.14#50.94#0.06# ##3.66#0.63#5.84#
#3.00#50.94#0.06# ##3.58#0.63#5.71#
#3.12#50.94#0.06# ##4.16#0.63#6.64#
#3.03#50.94#0.06# ##4.11#0.63#6.56#
#2.97#50.94#0.06# ##4.00#0.63#6.39#
#2.90#50.94#0.06# ##3.94#0.63#6.29#
#2.83#50.94#0.06# ##3.98#0.63#6.34#
#2.82#50.94#0.06# ##4.01#0.63#6.40#
#2.81#50.94#0.06# ##3.99#0.63#6.37#
#2.78#50.94#0.05# ##4.03#0.63#6.42#
#2.77#50.94#0.05# ##4.08#0.63#6.51#
#2.74#50.94#0.05# ##4.11#0.63#6.56#
#2.74#50.94#0.05# ##4.16#0.63#6.64#
#2.73#50.94#0.05# ##4.21#0.63#6.72#
#2.74#50.94#0.05# ##4.20#0.63#6.71#
#2.74#50.94#0.05# ##4.24#0.63#6.76#
#2.74#50.94#0.05# ##4.28#0.63#6.83#
#2.74#50.94#0.05# ##4.28#0.63#6.82#
#2.75#50.94#0.05# ##4.28#0.63#6.83#
#2.76#50.94#0.05# ##4.32#0.63#6.90#
#2.77#50.94#0.05# ##4.33#0.63#6.91#
#2.77#50.94#0.05# ##4.34#0.63#6.93#
#2.78#50.94#0.05# ##4.37#0.63#6.97#
#2.80#50.94#0.05# ##4.39#0.63#7.01#
#2.81#50.94#0.06# ##4.44#0.63#7.08#
#2.82#50.94#0.06# ##4.48#0.63#7.15#
#2.83#50.94#0.06# ##4.52#0.63#7.20#
#2.83#50.94#0.06# ##4.51#0.63#7.20#
#2.84#50.94#0.06# ##4.56#0.63#7.27#
#2.84#50.94#0.06# ##4.56#0.63#7.28#
#2.86#50.94#0.06# ##4.52#0.63#7.21#
#2.87#50.94#0.06# ##4.55#0.63#7.26#
#2.89#50.94#0.06# ##4.55#0.63#7.27#
#2.91#50.94#0.06# ##4.52#0.63#7.21#
#2.93#50.94#0.06# ##4.58#0.63#7.30#
#2.93#50.94#0.06# ##4.60#0.63#7.33#
#2.95#50.94#0.06# ##4.58#0.63#7.31#
#2.96#50.94#0.06# ##4.62#0.63#7.37#
#2.97#50.94#0.06# ##4.60#0.63#7.33#
#2.98#50.94#0.06# ##4.61#0.63#7.35#
#3.00#50.94#0.06# ##4.63#0.63#7.38#
#2.99#50.94#0.06# ##4.65#0.63#7.41#
#3.00#50.94#0.06# ##4.64#0.63#7.39#
#3.01#50.94#0.06# ##4.65#0.63#7.42#
#3.02#50.94#0.06# ##4.67#0.63#7.45#
#3.04#50.94#0.06# ##4.67#0.63#7.45#
#3.04#50.94#0.06# ##4.66#0.63#7.43#
#3.05#50.94#0.06# ##4.68#0.63#7.47#
#3.03#50.94#0.06# ##4.71#0.63#7.51#
#3.04#50.94#0.06# ##4.72#0.63#7.52#
#3.04#50.94#0.06# ##4.71#0.63#7.51#
#3.04#50.94#0.06# ##4.72#0.63#7.53#
#3.04#50.94#0.06# ##4.74#0.63#7.57#
#3.03#50.94#0.06# ##4.74#0.63#7.56#
#3.03#50.94#0.06# ##4.76#0.63#7.60#
#3.03#50.94#0.06# ##4.77#0.63#7.62#
#3.03#50.94#0.06# ##4.78#0.63#7.63#
#3.04#50.94#0.06# ##4.78#0.63#7.62#
#3.04#50.94#0.06# ##4.75#0.63#7.58#
#3.04#50.94#0.06# ##4.74#0.63#7.56#
#3.04#50.94#0.06# ##4.76#0.63#7.59#
#3.05#50.94#0.06# ##4.78#0.63#7.63#
#3.05#50.94#0.06# ##4.78#0.63#7.63#
#3.06#50.94#0.06# ##4.76#0.63#7.59#
#3.07#50.94#0.06# ##4.77#0.63#7.60#
#3.08#50.94#0.06# ##4.81#0.63#7.67#
#3.09#50.94#0.06# ##4.79#0.63#7.64#
#3.10#50.94#0.06# ##4.80#0.63#7.65#
#3.09#50.94#0.06# ##4.81#0.63#7.67#
#3.10#50.94#0.06# ##4.83#0.63#7.70#
#3.10#50.94#0.06# ##4.81#0.63#7.68#
#3.12#50.94#0.06# ##4.86#0.63#7.75#
#3.11#50.94#0.06# ##4.86#0.63#7.75#
#3.10#50.94#0.06# ##4.88#0.63#7.78#
#3.11#50.94#0.06# ##4.80#0.63#7.65#
#3.11#50.94#0.06# ##4.84#0.63#7.72#
#3.12#50.94#0.06# ##4.82#0.63#7.69#
#3.13#50.94#0.06# ##4.82#0.63#7.69#
#3.13#50.94#0.06# ##4.84#0.63#7.72#
#3.14#50.94#0.06# ##4.84#0.63#7.73#
#3.14#50.94#0.06# ##4.84#0.63#7.72#
#3.14#50.94#0.06# ##4.82#0.63#7.68#
#3.15#50.94#0.06# ##4.84#0.63#7.72#
#3.16#50.94#0.06# ##4.86#0.63#7.75#
#3.16#50.94#0.06# ##4.88#0.63#7.78#
#3.16#50.94#0.06# ##4.88#0.63#7.78#
#3.15#50.94#0.06# ##4.87#0.63#7.78#
#3.15#50.94#0.06# ##4.87#0.63#7.77#
#3.16#50.94#0.06# ##4.90#0.63#7.81#
#3.16#50.94#0.06# ##4.88#0.63#7.78#
#3.17#50.94#0.06# ##4.86#0.63#7.75#
#3.16#50.94#0.06# ##4.94#0.63#7.87#
#3.16#50.94#0.06# ##4.85#0.63#7.73#
#3.17#50.94#0.06# ##4.86#0.63#7.75#
#3.17#50.94#0.06# ##4.90#0.63#7.81#
#3.17#50.94#0.06# ##4.93#0.63#7.87#
#3.17#50.94#0.06# ##4.89#0.63#7.79#
#3.17#50.94#0.06# ##4.90#0.63#7.82#
#3.17#50.94#0.06# ##4.86#0.63#7.75#
#3.18#50.94#0.06# ##4.91#0.63#7.83#
#3.19#50.94#0.06# ##4.91#0.63#7.83#
#3.19#50.94#0.06# ##4.98#0.63#7.94#
#3.19#50.94#0.06# ##4.98#0.63#7.94#
#3.20#50.94#0.06# ##4.94#0.63#7.89#
#3.20#50.94#0.06# ##4.98#0.63#7.94#
#3.20#50.94#0.06# ##5.00#0.63#7.97#
#3.20#50.94#0.06# ##4.99#0.63#7.96#
#3.19#50.94#0.06# ##5.00#0.63#7.98#
#3.20#50.94#0.06# ##5.02#0.63#8.01#
#3.20#50.94#0.06# ##4.98#0.63#7.94#
#3.20#50.94#0.06# ##4.99#0.63#7.96#
#3.20#50.94#0.06# ##4.99#0.63#7.95#
#3.20#50.94#0.06# ##5.00#0.63#7.98#
#3.20#50.94#0.06# ##5.01#0.63#7.99#
#3.20#50.94#0.06# ##4.96#0.63#7.92#
#3.21#50.94#0.06# ##4.91#0.63#7.84#
#3.22#50.94#0.06# ##4.99#0.63#7.96#
#3.22#50.94#0.06# ##4.97#0.63#7.92#
#3.22#50.94#0.06# ##4.94#0.63#7.88#
#3.23#50.94#0.06# ##4.95#0.63#7.89#
#3.23#50.94#0.06# ##4.96#0.63#7.91#
#3.24#50.94#0.06# ##4.95#0.63#7.89#
#3.25#50.94#0.06# ##4.95#0.63#7.90#
#3.25#50.94#0.06# ##5.00#0.63#7.98#
#3.25#50.94#0.06# ##4.94#0.63#7.89#
#3.27#50.94#0.06# ##4.97#0.63#7.93#
#3.26#50.94#0.06# ##4.96#0.63#7.92#
#3.26#50.94#0.06# ##4.94#0.63#7.88#
#3.26#50.94#0.06# ##4.94#0.63#7.88#
#3.25#50.94#0.06# ##4.95#0.63#7.89#
#3.25#50.94#0.06# ##4.94#0.63#7.89#
#3.25#50.94#0.06# ##4.95#0.63#7.90#
#3.26#50.94#0.06# ##4.97#0.63#7.93#
#3.27#50.94#0.06# ##4.96#0.63#7.92#
#3.26#50.94#0.06# ##4.96#0.63#7.91#
#3.26#50.94#0.06# ##4.99#0.63#7.96#
#3.26#50.94#0.06# ##5.01#0.63#7.99#
#3.27#50.94#0.06# ##4.95#0.63#7.89#
#3.28#50.94#0.06# ##4.95#0.63#7.90#
#3.29#50.94#0.06# ##4.96#0.63#7.91#
#3.29#50.94#0.06# ##4.98#0.63#7.95#
#3.28#50.94#0.06# ##4.94#0.63#7.88#
#3.29#50.94#0.06# ##4.97#0.63#7.93#
#3.31#50.94#0.06# ##4.94#0.63#7.88#
#3.30#50.94#0.06# ##4.94#0.63#7.88#
#3.30#50.94#0.06# ##4.96#0.63#7.92#
#3.29#50.94#0.06# ##4.95#0.63#7.89#
#3.29#50.94#0.06# ##4.87#0.63#7.77#
#3.29#50.94#0.06# ##4.96#0.63#7.91#
#3.29#50.94#0.06# ##4.96#0.63#7.91#
#3.29#50.94#0.06# ##4.94#0.63#7.88#
#3.30#50.94#0.06# ##4.95#0.63#7.90#
#3.30#50.94#0.06# ##4.96#0.63#7.91#
#3.31#50.94#0.06# ##4.95#0.63#7.90#
